<svg xmlns="http://www.w3.org/2000/svg" viewBox="0 0 192 32">
  <title>sprites</title>
  <path d="M29.09,17.86L30,18a27,27,0,0,0-1.71-5.3,9.06,9.06,0,0,1-1-4.47A18.63,18.63,0,0,1,22.8,4.65L23.47,3.5s-0.71-.22-4.28-0.77A16.74,16.74,0,0,1,13.66,1,28.36,28.36,0,0,1,7.71,3.92a7.7,7.7,0,0,0-.2.88A19.6,19.6,0,0,0,2.74,8.56c1.63,6.21.89,9.3,0.89,9.3s4.3,2.15,6.35,5a13.07,13.07,0,0,1,6-.45s3.6-2.25,4.94-5.6C20.12,15.25,20,11.12,20,11.12l0.35-.24S19.87,10,17,9.33A7,7,0,0,1,13.91,8h0l0,0.19a0.46,0.46,0,0,1,0,.12c-0.07,0-1.45.05-3.79,1.93,0,0,0,1,0,2S10,14.43,10,14.43a9.14,9.14,0,0,0,2.82,2.18,18,18,0,0,1,2.81-.48,7.79,7.79,0,0,0,.44-2.76,3.7,3.7,0,0,0-2.66-.76A3.88,3.88,0,0,0,11.62,14a5,5,0,0,1,0-1.79,4.93,4.93,0,0,1,2.26-1.55,9.43,9.43,0,0,1,3.86,1.55c0.52,2-.23,5.58-0.23,5.58a13.88,13.88,0,0,1-6,1.57s-4.49-2-5.2-4.71h0c1-2.05.9-4.16,1-6.09,0.25-.31,2.21-2.31,6.93-3.82a25.55,25.55,0,0,0,6.94,2.38C26.22,12.58,24,17,24,17a1.47,1.47,0,0,0,.56,1H24.13s-1.47,5-5.92,6.23L19,24.85A25.32,25.32,0,0,0,14,26v0C9,27.4,6.17,24.5,6.17,24.5,0.14,22.42.45,17,.45,17a15.31,15.31,0,0,0-.4,5,21.08,21.08,0,0,0,3.71,3.11C7.63,27.67,7,29,7,29H7a1.34,1.34,0,0,0-.85.79,15.9,15.9,0,0,1,8.4,1.2S19.1,28.36,22,28.21a22.4,22.4,0,0,1,5.32-5.09v0A18.9,18.9,0,0,1,29.09,17.86Z" style="fill: #820505"/>
  <path d="M115.19,5.26a2.74,2.74,0,0,1-.49,1.4,1,1,0,0,1-.54.17,1.34,1.34,0,0,1-.6-0.14,5.14,5.14,0,0,0-2.09-.46c-1.49,0-2.41.71-2.41,2.11V8.71a3.55,3.55,0,0,0,1,1.86c0.57,0.63,1.46,1.48,2.15,2.11a0.43,0.43,0,0,1,.11.11c0.57,0.51,1.15,1.08,1.61,1.57a5.61,5.61,0,0,1,1.78,4.11c0,3.17-2,5.28-5.74,5.28a6,6,0,0,1-3.87-1,0.93,0.93,0,0,1-.43-0.71,4.8,4.8,0,0,1,.77-2,5.65,5.65,0,0,0,3.44,1.31,2.44,2.44,0,0,0,2.58-2.68c0-1.17-.46-2-1.75-3.23-0.32-.37-0.66-0.71-1-1.08-0.09-.09-0.23-0.2-0.37-0.34l-0.34-.34a25.44,25.44,0,0,1-1.78-1.83,5.19,5.19,0,0,1-1.32-3.34c0-2.25,1.52-4.51,5.36-4.51C113.61,4,114.9,4.8,115.19,5.26Z"/>
  <path d="M125.86,20.39a7,7,0,0,1,.27,1.36c0,0.57-.93,1.2-1.77,1.41h0a9,9,0,0,1-2.12.27,5.13,5.13,0,0,1-3.84-1.33c-1-1-1.5-2.75-1.5-5,0-5.28,2.29-7.24,5.42-7.24,2.59,0,3.92,1.52,4.14,3.89,0,0.41.05,0.84,0.05,1.31a8.83,8.83,0,0,1-.14,1.6,5.47,5.47,0,0,1-2.12.73,31.7,31.7,0,0,1-3.51.16c-0.44,0-.52,0-1,0,0.05,2.72,1.2,3.59,2.88,3.59A6.47,6.47,0,0,0,125.86,20.39ZM122,11.91c-1,.14-1.93,1.28-2.1,3.73h0.76c1,0,2.07,0,2.61-.08a1.14,1.14,0,0,0,.41-0.11,3.11,3.11,0,0,0,.11-0.82c0-.11,0-0.19,0-0.3V14.06c-0.14-1.44-.63-2.15-1.66-2.15H122Z"/>
  <path d="M130.67,13.25l0.08-.08v8.38a2,2,0,0,1-.33,1.31c-0.38.33-.68,0.33-1.88,0.35h-0.71c0-1.44.05-3.29,0.05-5.36V13.28a6,6,0,0,0-.3-2,3.08,3.08,0,0,1,1.14-.68,1.23,1.23,0,0,1,.38-0.05,1,1,0,0,1,1,.57,6.39,6.39,0,0,1,1.61-.82,5.36,5.36,0,0,1,1.77-.3c3.4,0,4.06,1.74,4.06,4.84v4.11c0,1.47,0,2.8.05,3.86-0.35.33-.84,0.44-2.64,0.44a2.54,2.54,0,0,1-.3-1.22V14.85c0-2-.46-2.67-1.85-2.67A2.88,2.88,0,0,0,130.67,13.25Z"/>
  <path d="M139.72,10.14a11.18,11.18,0,0,0,2.29.14l5.47,0.08c0,0.08,0,.24,0,0.33a1.34,1.34,0,0,1,0,.38,2.46,2.46,0,0,1-.33,1.06c-1.06,2.09-3,5.52-5,8.9,0.71,0,1.69,0,2.56,0a17.07,17.07,0,0,0,3.16-.27,7.38,7.38,0,0,1-.08,1.17A1.33,1.33,0,0,1,147.2,23a18.37,18.37,0,0,1-3,.14c-1.71,0-3.78,0-5.14-.11a2,2,0,0,1-.44-0.92,1.62,1.62,0,0,1,.27-0.73c0.3-.52.65-1.06,1-1.63,1.42-2.37,3-5.09,4.33-7.43h-2.53l-0.63,0h-0.57c-1.12,0-1.66-.11-1.66-0.49,0.11-1.06.33-1.58,0.82-1.71h0.11Z"/>
  <path d="M149.67,12a0.93,0.93,0,0,1-.05-0.35,1.07,1.07,0,0,1,.08-0.35,7.47,7.47,0,0,1,4.22-1.36c0.44,0,.52,0,1,0,2.18,0.14,2.88,1.5,2.88,3.86V15c0,1,0,2.07,0,3.07,0,0.63,0,1.85,0,2.34,0,0-.08,1.22.76,1.06,0,0.38-.05,1-0.05,1.17a2.15,2.15,0,0,1-1.69.76,2.46,2.46,0,0,1-1.63-.79c-0.14.11-.44,0.3-0.6,0.41a4.5,4.5,0,0,1-2.1.38,3.43,3.43,0,0,1-3.62-3.67c0-3.29,3-4.24,4.76-4.43a7.65,7.65,0,0,1,.79,0,3.84,3.84,0,0,1,.6,0V13.95c0-1.14-.11-1.74-1-1.74a8.52,8.52,0,0,0-2.72.68,2.29,2.29,0,0,1-1,.22,2.22,2.22,0,0,1-.54-1.17Zm5.25,6.94V17.1h-0.27c-0.27,0-.57,0-0.84.05h0c-1.17.22-2.18,0.73-2.18,2.34,0,1.25.49,1.71,1.17,1.77H153a2.55,2.55,0,0,0,1.85-.79l0,0s0-.16.05-0.33A8.46,8.46,0,0,0,154.92,18.9Z"/>
  <path d="M167.73,4.57a0.78,0.78,0,0,1,.14.54,2.51,2.51,0,0,1-.16.6,1.72,1.72,0,0,1-.3.52,1,1,0,0,1-.65.08,0.44,0.44,0,0,0-.24-0.08,3.73,3.73,0,0,0-1-.11c-1.09,0-2,.52-2.15,2.72,0,0.54,0,.79,0,1.39h1.17c0.6,0,1.47,0,1.8-.05-0.08,1.47-.24,1.77-0.76,2l0,0-0.33.14c-0.52.05-1.14,0.05-1.93,0.05,0,3,0,7.51.05,10.32a0.58,0.58,0,0,1-.33.63,10.64,10.64,0,0,1-1.69.14,4.72,4.72,0,0,1-.87-0.08,5.49,5.49,0,0,1,0-.73V21c0-.52,0-1.09,0-1.66V16c0-1.2,0-2.48,0-3.7a2.89,2.89,0,0,1-1.66-.44c0.14-1.09.3-1.22,0.84-1.39l0.82-.19a11,11,0,0,1,.11-1.74v0A4.59,4.59,0,0,1,165.5,4a3.18,3.18,0,0,1,2.2.57h0Z"/>
  <path d="M168.46,27.82c-1.28,0-1.52-.54-1.5-1.58a1.48,1.48,0,0,1,1.66-1.74c1.12,0,1.52.52,1.52,1.69A1.47,1.47,0,0,1,168.46,27.82Zm-1.09-4.74a4.06,4.06,0,0,1-.24-2V12a2.61,2.61,0,0,1,.38-1.5c0.19-.3.65-0.3,2.53-0.35V12.4c0,0.79,0,1.63,0,2.5v4.73c0,1.22,0,2.07.05,2.77-0.33.68-1.25,0.76-2.48,0.76Z"/>
  <path d="M174.27,13.25l0.08-.08v8.38a2,2,0,0,1-.33,1.31c-0.38.33-.68,0.33-1.88,0.35h-0.71c0-1.44.05-3.29,0.05-5.36V13.28a6,6,0,0,0-.3-2,3.08,3.08,0,0,1,1.14-.68,1.23,1.23,0,0,1,.38-0.05,1,1,0,0,1,1,.57,6.39,6.39,0,0,1,1.61-.82,5.36,5.36,0,0,1,1.77-.3c3.4,0,4.06,1.74,4.06,4.84v4.11c0,1.47,0,2.8.05,3.86-0.35.33-.84,0.44-2.64,0.44a2.54,2.54,0,0,1-.3-1.22V14.85c0-2-.46-2.67-1.85-2.67A2.88,2.88,0,0,0,174.27,13.25Z"/>
  <path d="M191.32,20.39a7,7,0,0,1,.27,1.36c0,0.57-.93,1.2-1.77,1.41h0a9,9,0,0,1-2.12.27,5.13,5.13,0,0,1-3.84-1.33c-1-1-1.5-2.75-1.5-5,0-5.28,2.29-7.24,5.42-7.24,2.59,0,3.92,1.52,4.14,3.89,0,0.41.05,0.84,0.05,1.31a8.83,8.83,0,0,1-.14,1.6,5.47,5.47,0,0,1-2.12.73,31.7,31.7,0,0,1-3.51.16c-0.44,0-.52,0-1,0,0.05,2.72,1.2,3.59,2.88,3.59A6.47,6.47,0,0,0,191.32,20.39Zm-3.89-8.49c-1,.14-1.93,1.28-2.1,3.73h0.76c1,0,2.07,0,2.61-.08a1.14,1.14,0,0,0,.41-0.11,3.11,3.11,0,0,0,.11-0.82c0-.11,0-0.19,0-0.3V14.06c-0.14-1.44-.63-2.15-1.66-2.15h-0.11Z"/>
  <path d="M34.19,6.51a1.86,1.86,0,0,1,.45-0.08A11.86,11.86,0,0,1,36,6.36c0.55,1.13,1.58,4,2.46,6.6,0.08,0.25.18,0.5,0.25,0.78,0.2,0.6.43,1.33,0.63,1.93s0.35,1.13.53,1.58c0.18-.45.38-1.05,0.6-1.61,0.25-.7.53-1.55,0.78-2.18,0.83-2.28,1.63-4.61,2.33-6.5a1.12,1.12,0,0,1,.25-0.45,13.23,13.23,0,0,1,1.86-.15A4.9,4.9,0,0,1,46,7.51c0.23,3.11.48,6.19,0.75,9.28,0.25,2.28.4,4.36,0.5,5.94-0.18.3-.78,0.35-2.08,0.35a1.71,1.71,0,0,1-.28-1c0-.5-0.1-0.88-0.1-1.38-0.08-.88-0.15-1.93-0.25-3.08,0-.5-0.08-1-0.1-1.43-0.08-.93-0.08-2.26-0.1-3.39s-0.05-1.68-.08-2.33c0,0,0,0,0,.05-0.53,1.66-1.28,3.94-1.76,5.24-0.58,1.53-1.15,3.16-1.73,4.76a0.61,0.61,0,0,1-.55.5,5.4,5.4,0,0,1-1.13.1c-0.43-1.4-1.2-3.61-1.93-5.77-0.08-.23-0.38-1.18-0.7-2.23-0.38-1.23-.73-2.28-0.88-2.71V12.5c0,1.08,0,2.61-.1,3.49-0.23,2.13-.43,4.24-0.53,5.79a3.61,3.61,0,0,1-.25,1.05,1.19,1.19,0,0,1-.8.2A6.5,6.5,0,0,1,32.71,23a0.06,0.06,0,0,1-.08-0.05C32.89,18.82,33.49,12.7,34,7A0.55,0.55,0,0,1,34.19,6.51Z"/>
  <path d="M49.16,12.4a0.9,0.9,0,0,1,.05-0.28,6.4,6.4,0,0,1,3.71-1.2c0.4,0,.45,0,0.88,0,1.86,0.13,2.46,1.35,2.46,3.49v1.13c0,1.73-.05,3.74-0.05,5.07,0,0-.1,1.3.7,1.15,0,0.35,0,.78,0,0.93a1.74,1.74,0,0,1-1.33.58,2.22,2.22,0,0,1-1.5-.9,3.68,3.68,0,0,1-.73.58,4,4,0,0,1-1.83.33A3,3,0,0,1,48.36,20c0-3.08,2.73-3.86,4.24-4a6.81,6.81,0,0,1,.7,0,3.88,3.88,0,0,1,.83.08V14.58c0-1.13-.13-1.76-1.2-1.76a7.53,7.53,0,0,0-2.63.65,1.88,1.88,0,0,1-.73.2,2.14,2.14,0,0,1-.38-1A0.94,0.94,0,0,1,49.16,12.4Zm5,6.82V17.44a3.2,3.2,0,0,0-.5,0,8.16,8.16,0,0,0-.83.05c-1.2.2-2.23,0.73-2.23,2.31,0,1.28.55,1.73,1.33,1.78h0.18A2.74,2.74,0,0,0,54,20.78a2,2,0,0,0,.08-0.35A8,8,0,0,0,54.13,19.22Z"/>
  <path d="M67.6,21.81c0,0.35,0,.8,0,0.93a1.66,1.66,0,0,1-1.33.58,2.19,2.19,0,0,1-1.5-.88A2.9,2.9,0,0,1,64,23a3.69,3.69,0,0,1-1.83.35c-2.51-.13-4.34-1.53-4.34-5.79a7.52,7.52,0,0,1,1.66-5.12,4.44,4.44,0,0,1,3.34-1.5,3.8,3.8,0,0,1,2,.45v-3c0-1.1,0-1.83-.05-2.43,0.25-.58,1-0.68,2-0.68a4.89,4.89,0,0,1,.2,1.91v8.43c0,1.73-.05,3.71-0.05,5C66.89,20.65,66.79,22,67.6,21.81Zm-2.81-8.73a2.36,2.36,0,0,0-1.61-.48c-1.48,0-3,1.25-3,4.69,0,3.21,1.13,4.24,2.66,4.24a2.45,2.45,0,0,0,1.83-.7,1.05,1.05,0,0,0,.08-0.35c0-.3,0-0.68,0-1.2V13.08Z"/>
  <path d="M76.57,20.88a5.64,5.64,0,0,1,.15,1,1.84,1.84,0,0,1-1.45,1.2,8,8,0,0,1-1.91.25A4.59,4.59,0,0,1,70,22.13c-0.88-.9-1.33-2.48-1.33-4.56,0-4.84,2.06-6.65,4.82-6.65,2.26,0,3.41,1.38,3.64,3.54,0,0.38.05,0.78,0.05,1.2A6.55,6.55,0,0,1,77,17.14a4.91,4.91,0,0,1-1.76.58,29.68,29.68,0,0,1-3.26.15c-0.4,0-.73,0-1.13,0,0,2.76,1.2,3.64,3,3.64A5.84,5.84,0,0,0,76.57,20.88ZM73,12.58c-1,.15-2,1.28-2.08,3.71h1c1,0,2,0,2.48-.08a1.3,1.3,0,0,0,.58-0.15A2.5,2.5,0,0,0,75,15.24c0-.2,0-0.38,0-0.55-0.13-1.4-.68-2.13-1.81-2.13A0.69,0.69,0,0,0,73,12.58Z"/>
  <path d="M81.69,21.23V8.39c0-1.1,0-1.83-.05-2.43,0.25-.58,1-0.68,2-0.68a4.89,4.89,0,0,1,.2,1.91v4.66a5,5,0,0,1,2.91-.93c2.31,0,4.09,1.5,4.09,5.22,0,3.46-1.15,5.32-2.43,6.27a5.92,5.92,0,0,1-3.29.93,6.51,6.51,0,0,1-3.21-.68A3.49,3.49,0,0,1,81.69,21.23Zm2.16,0.13a3.44,3.44,0,0,0,1.5.33c1.43,0,3.13-1.13,3.13-5.19,0-2.81-1-3.79-2.63-3.79a3.16,3.16,0,0,0-2,.7v7.95Z"/>
  <path d="M93.93,12.1c0.25,0.8,1,3.11,1.43,4.87,0.4,1.53.75,3.11,0.83,3.34,0.13-.35.5-1.93,0.85-3.46,0.43-1.91.93-3.89,1.28-5.44a0.94,0.94,0,0,1,.75-0.23c0.25,0,.6,0,1.1.05a1.17,1.17,0,0,1,.13.53,2.44,2.44,0,0,1-.13.68c-0.68,2.78-1.93,7.2-3.29,11C95.51,26.92,94.23,28,93.12,28s-1.78-.4-1.91-0.83a3.1,3.1,0,0,1,.15-0.68,10.63,10.63,0,0,0,2-.23c0.68-.35,1.45-2.38,1.81-3.86A0.59,0.59,0,0,1,95,22.28a4.17,4.17,0,0,1-.5-1.15c-0.23-.75-2-6.55-3-9.45,0.18-.43.63-0.58,1.93-0.58A1.82,1.82,0,0,1,93.93,12.1Z"/>
</svg>
